module github.com/teamgram/teamgram-server

go 1.17

require (
	github.com/bwmarrin/snowflake v0.3.0
	github.com/disintegration/imaging v1.6.2
	github.com/gogo/protobuf v1.3.2
	github.com/minio/minio-go v6.0.14+incompatible
	github.com/nyaruka/phonenumbers v1.0.74
	github.com/oschwald/geoip2-golang v1.6.1
	github.com/stretchr/testify v1.7.0
	github.com/teamgram/marmota v0.0.0-20220322002426-fb351e5038b2
	github.com/teamgram/proto v0.139.3
	github.com/zeromicro/go-zero v1.3.1
	google.golang.org/grpc v1.44.0
	gopkg.in/check.v1 v1.0.0-20201130134442-10cb98267c6c
	mvdan.cc/xurls/v2 v2.3.0
)

require (
	github.com/Shopify/sarama v1.30.0 // indirect
	github.com/beorn7/perks v1.0.1 // indirect
	github.com/cespare/xxhash/v2 v2.1.2 // indirect
	github.com/coreos/go-semver v0.3.0 // indirect
	github.com/coreos/go-systemd/v22 v22.3.2 // indirect
	github.com/davecgh/go-spew v1.1.1 // indirect
	github.com/dgryski/go-rendezvous v0.0.0-20200823014737-9f7001d12a5f // indirect
	github.com/eapache/go-resiliency v1.2.0 // indirect
	github.com/eapache/go-xerial-snappy v0.0.0-20180814174437-776d5712da21 // indirect
	github.com/eapache/queue v1.1.0 // indirect
	github.com/go-ini/ini v1.66.4 // indirect
	github.com/go-logr/logr v1.2.2 // indirect
	github.com/go-logr/stdr v1.2.2 // indirect
	github.com/go-redis/redis/v8 v8.11.4 // indirect
	github.com/go-sql-driver/mysql v1.6.0 // indirect
	github.com/golang-jwt/jwt/v4 v4.2.0 // indirect
	github.com/golang/mock v1.6.0 // indirect
	github.com/golang/protobuf v1.5.2 // indirect
	github.com/golang/snappy v0.0.4 // indirect
	github.com/google/go-cmp v0.5.6 // indirect
	github.com/google/gofuzz v1.1.0 // indirect
	github.com/google/uuid v1.3.0 // indirect
	github.com/googleapis/gnostic v0.4.1 // indirect
	github.com/hashicorp/go-uuid v1.0.2 // indirect
	github.com/hashicorp/golang-lru v0.5.1 // indirect
	github.com/jcmturner/aescts/v2 v2.0.0 // indirect
	github.com/jcmturner/dnsutils/v2 v2.0.0 // indirect
	github.com/jcmturner/gofork v1.0.0 // indirect
	github.com/jcmturner/gokrb5/v8 v8.4.2 // indirect
	github.com/jcmturner/rpc/v2 v2.0.3 // indirect
	github.com/json-iterator/go v1.1.11 // indirect
	github.com/justinas/alice v1.2.0 // indirect
	github.com/klauspost/compress v1.13.6 // indirect
	github.com/kr/pretty v0.2.1 // indirect
	github.com/kr/text v0.2.0 // indirect
	github.com/matttproud/golang_protobuf_extensions v1.0.1 // indirect
	github.com/mitchellh/go-homedir v1.1.0 // indirect
	github.com/modern-go/concurrent v0.0.0-20180306012644-bacd9c7ef1dd // indirect
	github.com/modern-go/reflect2 v1.0.1 // indirect
	github.com/openzipkin/zipkin-go v0.4.0 // indirect
	github.com/oschwald/maxminddb-golang v1.8.0 // indirect
	github.com/pierrec/lz4 v2.6.1+incompatible // indirect
	github.com/pkg/errors v0.9.1 // indirect
	github.com/pmezard/go-difflib v1.0.0 // indirect
	github.com/prometheus/client_golang v1.11.0 // indirect
	github.com/prometheus/client_model v0.2.0 // indirect
	github.com/prometheus/common v0.26.0 // indirect
	github.com/prometheus/procfs v0.6.0 // indirect
	github.com/rcrowley/go-metrics v0.0.0-20201227073835-cf1acfcdf475 // indirect
	github.com/spaolacci/murmur3 v1.1.0 // indirect
	go.etcd.io/etcd/api/v3 v3.5.2 // indirect
	go.etcd.io/etcd/client/pkg/v3 v3.5.2 // indirect
	go.etcd.io/etcd/client/v3 v3.5.2 // indirect
	go.opentelemetry.io/otel v1.3.0 // indirect
	go.opentelemetry.io/otel/exporters/jaeger v1.3.0 // indirect
	go.opentelemetry.io/otel/exporters/zipkin v1.3.0 // indirect
	go.opentelemetry.io/otel/sdk v1.3.0 // indirect
	go.opentelemetry.io/otel/trace v1.3.0 // indirect
	go.uber.org/atomic v1.9.0 // indirect
	go.uber.org/automaxprocs v1.4.0 // indirect
	go.uber.org/multierr v1.8.0 // indirect
	go.uber.org/zap v1.21.0 // indirect
	golang.org/x/crypto v0.0.0-20220214200702-86341886e292 // indirect
	golang.org/x/image v0.0.0-20191009234506-e7c1f5e7dbb8 // indirect
	golang.org/x/net v0.0.0-20220225172249-27dd8689420f // indirect
	golang.org/x/oauth2 v0.0.0-20200107190931-bf48bf16ab8d // indirect
	golang.org/x/sys v0.0.0-20220227234510-4e6760a101f9 // indirect
	golang.org/x/term v0.0.0-20210927222741-03fcf44c2211 // indirect
	golang.org/x/text v0.3.7 // indirect
	golang.org/x/time v0.0.0-20211116232009-f0f3c7e86c11 // indirect
	google.golang.org/appengine v1.6.5 // indirect
	google.golang.org/genproto v0.0.0-20220228195345-15d65a4533f7 // indirect
	google.golang.org/protobuf v1.27.1 // indirect
	gopkg.in/inf.v0 v0.9.1 // indirect
	gopkg.in/yaml.v2 v2.4.0 // indirect
	gopkg.in/yaml.v3 v3.0.0-20210107192922-496545a6307b // indirect
	k8s.io/api v0.20.12 // indirect
	k8s.io/apimachinery v0.20.12 // indirect
	k8s.io/client-go v0.20.12 // indirect
	k8s.io/klog/v2 v2.40.1 // indirect
	k8s.io/utils v0.0.0-20201110183641-67b214c5f920 // indirect
	sigs.k8s.io/structured-merge-diff/v4 v4.1.2 // indirect
	sigs.k8s.io/yaml v1.2.0 // indirect
)

replace github.com/zeromicro/go-zero v1.3.1 => github.com/teamgramio/go-zero v1.3.1-0.20220322035857-cbb1c96af408
